<svg width="13" height="13" viewBox="0 0 13 13" fill="none" xmlns="http://www.w3.org/2000/svg">
<path d="M7.64258 6.5C7.64258 7.131 7.131 7.64258 6.5 7.64258C5.869 7.64258 5.35742 7.131 5.35742 6.5C5.35742 5.869 5.869 5.35742 6.5 5.35742C7.131 5.35742 7.64258 5.869 7.64258 6.5Z" fill="#4E4963"/>
<path d="M8.42969 3.04688H4.57031C3.73024 3.04688 3.04688 3.73024 3.04688 4.57031V8.42969C3.04688 9.26976 3.73024 9.95312 4.57031 9.95312H8.42969C9.26976 9.95312 9.95312 9.26976 9.95312 8.42969V4.57031C9.95312 3.73024 9.26976 3.04688 8.42969 3.04688ZM6.5 8.4043C5.44996 8.4043 4.5957 7.55004 4.5957 6.5C4.5957 5.44996 5.44996 4.5957 6.5 4.5957C7.55004 4.5957 8.4043 5.44996 8.4043 6.5C8.4043 7.55004 7.55004 8.4043 6.5 8.4043ZM8.68359 4.69727C8.47323 4.69727 8.30273 4.52677 8.30273 4.31641C8.30273 4.10604 8.47323 3.93555 8.68359 3.93555C8.89396 3.93555 9.06445 4.10604 9.06445 4.31641C9.06445 4.52677 8.89396 4.69727 8.68359 4.69727Z" fill="#4E4963"/>
<path d="M9.57227 0H3.42773C1.53772 0 0 1.53772 0 3.42773V9.57227C0 11.4623 1.53772 13 3.42773 13H9.57227C11.4623 13 13 11.4623 13 9.57227V3.42773C13 1.53772 11.4623 0 9.57227 0ZM10.7148 8.42969C10.7148 9.6897 9.6897 10.7148 8.42969 10.7148H4.57031C3.3103 10.7148 2.28516 9.6897 2.28516 8.42969V4.57031C2.28516 3.3103 3.3103 2.28516 4.57031 2.28516H8.42969C9.6897 2.28516 10.7148 3.3103 10.7148 4.57031V8.42969Z" fill="#4E4963"/>
</svg>
