<svg width="12" height="12" viewBox="0 0 12 12" fill="none" xmlns="http://www.w3.org/2000/svg">
<path d="M11.3885 0.611664C10.9969 0.219959 10.4657 -5.52909e-05 9.91175 8.62963e-06C9.35753 -0.00158938 8.82578 0.218809 8.43522 0.612016L1.25046 7.79617C1.19085 7.85622 1.14588 7.92922 1.119 8.00944L0.0281049 11.2822C-0.0671048 11.568 0.0874229 11.8769 0.373244 11.972C0.428695 11.9905 0.486767 11.9999 0.54519 12C0.603741 11.9999 0.661941 11.9905 0.717552 11.9722L3.99028 10.8813C4.07066 10.8544 4.14369 10.8093 4.20355 10.7493L11.3883 3.56457C12.2038 2.7492 12.2038 1.42713 11.3885 0.611664Z" fill="#4E4963"/>
</svg>
