<svg width="12" height="8" viewBox="0 0 12 8" fill="none" xmlns="http://www.w3.org/2000/svg">
<path d="M11.7451 3.78838C11.6397 3.63347 9.12661 0 5.92819 0C2.72953 0 0.170288 3.63347 0.0648743 3.78838C-0.0216248 3.91492 -0.0216248 4.08534 0.0648743 4.21165C0.170288 4.36655 2.72953 8 5.92819 8C9.12661 8 11.6397 4.36655 11.7451 4.21162C11.8316 4.08534 11.8316 3.9149 11.7451 3.78838ZM5.92819 6.54544C4.59286 6.54544 3.46006 5.40339 3.46006 3.99999C3.46006 2.59658 4.59286 1.45453 5.92819 1.45453C7.26353 1.45453 8.35019 2.59658 8.35019 3.99999C8.35019 5.40339 7.26353 6.54544 5.92819 6.54544Z" fill="#4E4963"/>
<path d="M5.92813 2.90894C5.35562 2.90894 4.84399 3.42593 4.84399 4.06122C4.84399 4.69677 5.35562 5.21351 5.92813 5.21351C6.50042 5.21351 6.96614 4.69677 6.96614 4.06122C6.96614 3.42593 6.50042 2.90894 5.92813 2.90894Z" fill="#4E4963"/>
</svg>
