<svg width="19" height="18" viewBox="0 0 19 18" fill="none" xmlns="http://www.w3.org/2000/svg">
<path d="M11.2851 4.92187H12.6915V2.10931C12.6915 0.946175 11.7452 0 10.582 0H2.10931C0.946313 0 0 0.946175 0 2.10931V15.8907C0 17.0537 0.946313 18 2.10931 18H10.582C11.7452 18 12.6915 17.0537 12.6915 15.8907V13.0781H11.2851V15.8907C11.2851 16.2783 10.9698 16.5938 10.582 16.5938H2.10931C1.72169 16.5938 1.40621 16.2783 1.40621 15.8907V2.10931C1.40621 1.72169 1.72169 1.40621 2.10931 1.40621H10.582C10.9698 1.40621 11.2851 1.72169 11.2851 2.10931V4.92187ZM14.6954 12.3147L13.701 11.3203L15.3181 9.70304H6.22269V8.29683H15.3181L13.701 6.6797L14.6954 5.6853L18.01 8.99993L14.6954 12.3147Z" fill="#4E4963"/>
</svg>
