<svg width="15" height="16" viewBox="0 0 15 16" fill="none" xmlns="http://www.w3.org/2000/svg">
<path fill-rule="evenodd" clip-rule="evenodd" d="M0 6.50913C0 9.78286 2.66365 12.4466 5.93737 12.4466C7.40596 12.4466 8.75179 11.9105 9.78944 11.0238L14.1995 15.4341C14.2908 15.5259 14.4108 15.5715 14.5308 15.5715C14.6509 15.5715 14.7708 15.5259 14.8627 15.4341C15.0458 15.2509 15.0458 14.954 14.8627 14.7709L10.4525 10.3606C11.3388 9.32298 11.8746 7.9774 11.8746 6.50913C11.8746 3.23529 9.21098 0.571533 5.93737 0.571533C2.66365 0.571533 0 3.23529 0 6.50913ZM0.937474 6.50913C0.937474 3.75222 3.18057 1.50904 5.93737 1.50904C8.69418 1.50904 10.9372 3.75222 10.9372 6.50913C10.9372 9.26604 8.69418 11.5091 5.93737 11.5091C3.18057 11.5091 0.937474 9.26604 0.937474 6.50913Z" fill="#FFFEFE"/>
</svg>
